…
``` r
oecd.hlth.exp |> 
  summarise(n=n(), .by=c(health_function, health.function)) |> 
  arrange(health_function) |> 
  collect()
```

    ## # A tibble: 48 × 3
    ##    health_function health.function                                      n
    ##    <chr>           <chr>                                            <int>
    ##  1 BASIC           Basic health care services                      194064
    ##  2 BASIC_PH        Basic health care services and pharmaceuticals  157540
    ##  3 HC0             Other health care services unknown               56978
    ##  4 HC1             Curative care                                   871726
    ##  5 HC131           General curative care                           175062
    ##  6 HC132           Dental curative care                            164315
    ##  7 HC133           Specialised curative care                       146060
    ##  8 HC139           Other curative care                             105292
    ##  9 HC1HC2          Curative and rehabilitative care               1023803
    ## 10 HC1_HC4         Individual health care services                 361939
    ## # ℹ 38 more rows
…
``` r
oecd.hlth.exp |> 
  summarise(n=n(), .by=c(provider, health.care.provider)) |> 
  arrange(provider) |> 
  collect()
```

    ## # A tibble: 34 × 3
    ##    provider health.care.provider                                            n
    ##    <chr>    <chr>                                                       <int>
    ##  1 HP1      Hospitals                                                  432118
    ##  2 HP11     General hospitals                                          353704
    ##  3 HP12     Mental health hospitals                                    207843
    ##  4 HP13     Specialised hospitals (other than mental health hospitals) 238416
    ##  5 HP2      Residential long-term care facilities                      231269
    ##  6 HP21     Long-term nursing care facilities                          161459
    ##  7 HP22     Mental health and substance abuse faciltites                78058
    ##  8 HP29     Other residential long-term care facilities                 82045
    ##  9 HP3      Providers of ambulatory health care                        454415
    ## 10 HP31     Medical practices                                          323918
    ## # ℹ 24 more rows
…
